…
#### 6. Найти всех персонажей ниже 170
```r
under_170 <- starwars |>
             filter(height < 170)
under_170
```
        # A tibble: 22 × 14
        name  height  mass hair_color skin_color eye_color birth_year sex   gender homeworld species
        <chr>  <int> <dbl> <chr>      <chr>      <chr>          <dbl> <chr> <chr>  <chr>     <chr>  
        1 C-3PO    167    75 NA         gold       yellow           112 none  mascu… Tatooine  Droid  
        2 R2-D2     96    32 NA         white, bl… red               33 none  mascu… Naboo     Droid  
        3 Leia…    150    49 brown      light      brown             19 fema… femin… Alderaan  Human  
        4 Beru…    165    75 brown      light      blue              47 fema… femin… Tatooine  Human  
        5 R5-D4     97    32 NA         white, red red               NA none  mascu… Tatooine  Droid  
        6 Yoda      66    17 white      green      brown            896 male  mascu… NA        Yoda's…
        7 Mon …    150    NA auburn     fair       blue              48 fema… femin… Chandrila Human  
        8 Wick…     88    20 brown      brown      brown              8 male  mascu… Endor     Ewok   
        9 Nien…    160    68 none       grey       black             NA male  mascu… Sullust   Sullus…
        10 Watto    137    NA black      blue, grey yellow            NA male  mascu… Toydaria  Toydar…
        # ℹ 12 more rows
        # ℹ 3 more variables: films <list>, vehicles <list>, starships <list>
…
#### 9. Найти средний возраст персонажей каждой расы вселенной Звездных войн
```r
avg_age_by_spec <- starwars |>
                   group_by(species) |>
                   summarise(avg_value = mean(birth_year, na.rm = TRUE))
avg_age_by_spec
```
        # A tibble: 38 × 2
        species   avg_value
        <chr>         <dbl>
        1 Aleena        NaN  
        2 Besalisk      NaN  
        3 Cerean         92  
        4 Chagrian      NaN  
        5 Clawdite      NaN  
        6 Droid          53.3
        7 Dug           NaN  
        8 Ewok            8  
        9 Geonosian     NaN  
        10 Gungan         52  
        # ℹ 28 more rows
        # ℹ Use `print(n = ...)` to see more rows
…
#### 11. Подсчитать среднюю длину имени в каждой расе вселенной Звездных войн.
```r
avg_len_name_by_spec <- starwars |>
                        group_by(species) |>
                        summarise(avg_nm_len = mean(nchar(name)))
avg_len_name_by_spec
```
        # A tibble: 38 × 2
        species   avg_nm_len
        <chr>          <dbl>
        1 Aleena         12   
        2 Besalisk       15   
        3 Cerean         12   
        4 Chagrian       10   
        5 Clawdite       10   
        6 Droid           4.83
        7 Dug             7   
        8 Ewok           21   
        9 Geonosian      17   
        10 Gungan         11.7 
        # ℹ 28 more rows
        # ℹ Use `print(n = ...)` to see more rows
…
